%YAML 1.1
%TAG !u! tag:unity3d.com,2011:
--- !u!1 &198078
GameObject:
  m_ObjectHideFlags: 0
  m_CorrespondingSourceObject: {fileID: 0}
  m_PrefabInstance: {fileID: 0}
  m_PrefabAsset: {fileID: 0}
  serializedVersion: 6
  m_Component:
  - component: {fileID: 412620}
  - component: {fileID: 3382836}
  - component: {fileID: 2315292}
  m_Layer: 0
  m_Name: SM_Env_Road_Arrow_02
  m_TagString: Untagged
  m_Icon: {fileID: 0}
  m_NavMeshLayer: 0
  m_StaticEditorFlags: 0
  m_IsActive: 1
--- !u!4 &412620
Transform:
  m_ObjectHideFlags: 0
  m_CorrespondingSourceObject: {fileID: 0}
  m_PrefabInstance: {fileID: 0}
  m_PrefabAsset: {fileID: 0}
  m_GameObject: {fileID: 198078}
  m_LocalRotation: {x: 0, y: 0, z: 0, w: 1}
  m_LocalPosition: {x: 0, y: 0, z: 0}
  m_LocalScale: {x: 1, y: 1, z: 1}
  m_Children:
  - {fileID: 2740446917876001624}
  m_Father: {fileID: 0}
  m_RootOrder: 0
  m_LocalEulerAnglesHint: {x: 0, y: 0, z: 0}
--- !u!33 &3382836
MeshFilter:
  m_ObjectHideFlags: 0
  m_CorrespondingSourceObject: {fileID: 0}
  m_PrefabInstance: {fileID: 0}
  m_PrefabAsset: {fileID: 0}
  m_GameObject: {fileID: 198078}
  m_Mesh: {fileID: 4300000, guid: 749e90ffcfddbb84eaaca7621ff5847d, type: 3}
--- !u!23 &2315292
MeshRenderer:
  m_ObjectHideFlags: 0
  m_CorrespondingSourceObject: {fileID: 0}
  m_PrefabInstance: {fileID: 0}
  m_PrefabAsset: {fileID: 0}
  m_GameObject: {fileID: 198078}
  m_Enabled: 1
  m_CastShadows: 1
  m_ReceiveShadows: 1
  m_DynamicOccludee: 1
  m_MotionVectors: 1
  m_LightProbeUsage: 1
  m_ReflectionProbeUsage: 1
  m_RenderingLayerMask: 1
  m_RendererPriority: 0
  m_Materials:
  - {fileID: 2100000, guid: 9415d5fbf987e4d47b3c90bea3a0d824, type: 2}
  m_StaticBatchInfo:
    firstSubMesh: 0
    subMeshCount: 0
  m_StaticBatchRoot: {fileID: 0}
  m_ProbeAnchor: {fileID: 0}
  m_LightProbeVolumeOverride: {fileID: 0}
  m_ScaleInLightmap: 1
  m_PreserveUVs: 0
  m_IgnoreNormalsForChartDetection: 0
  m_ImportantGI: 0
  m_StitchLightmapSeams: 0
  m_SelectedEditorRenderState: 3
  m_MinimumChartSize: 4
  m_AutoUVMaxDistance: 0.5
  m_AutoUVMaxAngle: 89
  m_LightmapParameters: {fileID: 0}
  m_SortingLayerID: 0
  m_SortingLayer: 0
  m_SortingOrder: 0
--- !u!1001 &4808685452211713458
PrefabInstance:
  m_ObjectHideFlags: 0
  serializedVersion: 2
  m_Modification:
    m_TransformParent: {fileID: 412620}
    m_Modifications:
    - target: {fileID: 4336354318227965221, guid: 7d6000f6c8ddc8d42abe003f73cfcaaf,
        type: 3}
      propertyPath: m_Name
      value: SM_Env_Road_WhiteLine
      objectReference: {fileID: 0}
    - target: {fileID: 7256394127208275690, guid: 7d6000f6c8ddc8d42abe003f73cfcaaf,
        type: 3}
      propertyPath: m_LocalPosition.x
      value: -2.52
      objectReference: {fileID: 0}
    - target: {fileID: 7256394127208275690, guid: 7d6000f6c8ddc8d42abe003f73cfcaaf,
        type: 3}
      propertyPath: m_LocalPosition.y
      value: 0
      objectReference: {fileID: 0}
    - target: {fileID: 7256394127208275690, guid: 7d6000f6c8ddc8d42abe003f73cfcaaf,
        type: 3}
      propertyPath: m_LocalPosition.z
      value: -0.15
      objectReference: {fileID: 0}
    - target: {fileID: 7256394127208275690, guid: 7d6000f6c8ddc8d42abe003f73cfcaaf,
        type: 3}
      propertyPath: m_LocalRotation.x
      value: 0
      objectReference: {fileID: 0}
    - target: {fileID: 7256394127208275690, guid: 7d6000f6c8ddc8d42abe003f73cfcaaf,
        type: 3}
      propertyPath: m_LocalRotation.y
      value: 0
      objectReference: {fileID: 0}
    - target: {fileID: 7256394127208275690, guid: 7d6000f6c8ddc8d42abe003f73cfcaaf,
        type: 3}
      propertyPath: m_LocalRotation.z
      value: 0
      objectReference: {fileID: 0}
    - target: {fileID: 7256394127208275690, guid: 7d6000f6c8ddc8d42abe003f73cfcaaf,
        type: 3}
      propertyPath: m_LocalRotation.w
      value: 1
      objectReference: {fileID: 0}
    - target: {fileID: 7256394127208275690, guid: 7d6000f6c8ddc8d42abe003f73cfcaaf,
        type: 3}
      propertyPath: m_RootOrder
      value: 0
      objectReference: {fileID: 0}
    - target: {fileID: 7256394127208275690, guid: 7d6000f6c8ddc8d42abe003f73cfcaaf,
        type: 3}
      propertyPath: m_LocalEulerAnglesHint.x
      value: 0
      objectReference: {fileID: 0}
    - target: {fileID: 7256394127208275690, guid: 7d6000f6c8ddc8d42abe003f73cfcaaf,
        type: 3}
      propertyPath: m_LocalEulerAnglesHint.y
      value: 0
      objectReference: {fileID: 0}
    - target: {fileID: 7256394127208275690, guid: 7d6000f6c8ddc8d42abe003f73cfcaaf,
        type: 3}
      propertyPath: m_LocalEulerAnglesHint.z
      value: 0
      objectReference: {fileID: 0}
    - target: {fileID: 7256394127208275690, guid: 7d6000f6c8ddc8d42abe003f73cfcaaf,
        type: 3}
      propertyPath: m_LocalScale.x
      value: 0.95
      objectReference: {fileID: 0}
    m_RemovedComponents: []
  m_SourcePrefab: {fileID: 100100000, guid: 7d6000f6c8ddc8d42abe003f73cfcaaf, type: 3}
--- !u!4 &2740446917876001624 stripped
Transform:
  m_CorrespondingSourceObject: {fileID: 7256394127208275690, guid: 7d6000f6c8ddc8d42abe003f73cfcaaf,
    type: 3}
  m_PrefabInstance: {fileID: 4808685452211713458}
  m_PrefabAsset: {fileID: 0}
